module gitlab.com/flimzy/testy

go 1.20

require (
	github.com/Masterminds/semver/v3 v3.2.0
	github.com/davecgh/go-spew v1.1.1
	github.com/labstack/echo/v4 v4.10.2
	github.com/otiai10/copy v1.9.0
	github.com/pmezard/go-difflib v1.0.0
)

require (
	github.com/labstack/gommon v0.4.0 // indirect
	github.com/mattn/go-colorable v0.1.13 // indirect
	github.com/mattn/go-isatty v0.0.17 // indirect
	github.com/valyala/bytebufferpool v1.0.0 // indirect
	github.com/valyala/fasttemplate v1.2.2 // indirect
	golang.org/x/crypto v0.6.0 // indirect
	golang.org/x/net v0.7.0 // indirect
	golang.org/x/sys v0.5.0 // indirect
	golang.org/x/text v0.7.0 // indirect
)
